<svg width="31" height="25" viewBox="0 0 31 25" fill="none" xmlns="http://www.w3.org/2000/svg">
<path d="M30.2507 2.99667C29.2869 3.43397 28.2196 3.69865 27.1781 3.87127C27.6729 3.78784 28.3979 2.8931 28.6885 2.5306C29.1316 1.97822 29.4998 1.35103 29.707 0.672064C29.7329 0.620278 29.753 0.55123 29.7012 0.51383C29.635 0.487937 29.5919 0.499445 29.5372 0.528215C28.3749 1.14964 27.1723 1.60133 25.895 1.92068C25.7885 1.94657 25.7108 1.92068 25.6447 1.85451C25.5382 1.73367 25.4404 1.62147 25.3253 1.52941C24.7873 1.07196 24.2119 0.712342 23.5617 0.447659C22.7072 0.0995436 21.7751 -0.0471826 20.8545 0.0132341C19.9597 0.0707738 19.0823 0.323948 18.2882 0.738234C17.4913 1.1554 16.7835 1.73367 16.2168 2.4299C15.6327 3.15203 15.2012 4.00361 14.9797 4.90699C14.7668 5.77871 14.784 6.64181 14.9135 7.52217C14.9336 7.66889 14.9192 7.68903 14.7869 7.66889C9.78383 6.92375 5.63809 5.13427 2.27202 1.29925C2.12529 1.13238 2.04762 1.13238 1.92678 1.31075C0.453765 3.52028 1.16726 7.06473 3.00853 8.80818C3.25308 9.04122 3.50625 9.27425 3.77668 9.48427C3.67886 9.50441 2.45327 9.37207 1.3629 8.80818C1.21617 8.71612 1.14424 8.7679 1.12985 8.93477C1.11547 9.17356 1.13561 9.39221 1.17013 9.65114C1.45208 11.8894 3.00277 13.9609 5.12599 14.7664C5.37916 14.8729 5.65536 14.9649 5.92867 15.011C5.44534 15.1174 4.94762 15.1922 3.56091 15.0829C3.38829 15.0512 3.32212 15.1375 3.38829 15.3015C4.42976 18.1411 6.67956 18.987 8.36548 19.4703C8.58988 19.5106 8.81716 19.5106 9.04444 19.5624C9.03006 19.5825 9.01568 19.5825 9.00417 19.6026C8.44603 20.4542 6.50695 21.0872 5.60645 21.4036C3.96657 21.9761 2.17996 22.2351 0.445136 22.0653C0.166068 22.0251 0.108522 22.0279 0.03372 22.0653C-0.0439586 22.1114 0.0250887 22.1775 0.114275 22.2495C0.465268 22.4825 0.824897 22.6868 1.19027 22.8881C2.29216 23.4722 3.44007 23.9382 4.63978 24.2691C10.8426 25.9809 17.825 24.7237 22.4828 20.0975C26.1395 16.4638 27.4198 11.455 27.4198 6.43754C27.4198 6.24191 27.6499 6.13258 27.788 6.02901C28.7403 5.31552 29.5056 4.45818 30.2162 3.50302C30.3744 3.28724 30.3773 3.09736 30.3773 3.01968C30.3773 3.0053 30.3773 2.99379 30.3773 2.99379C30.3744 2.91611 30.3715 2.93913 30.2507 2.99667Z" fill="#5B6E93"/>
</svg>
